--------------------------------------------------------------------------
Primary job  terminated normally, but 1 process returned
a non-zero exit code. Per user-direction, the job has been aborted.
--------------------------------------------------------------------------
--------------------------------------------------------------------------
mpirun noticed that process rank 62 with PID 11815 on node 10.128.0.45 exited on signal 9 (Killed).
--------------------------------------------------------------------------
